(module witty (layer F.Cu) (tedit 58F4EE48)
  (fp_text reference REF** (at 0 -12.7) (layer F.SilkS)
    (effects (font (size 1.2 1.2) (thickness 0.15)))
  )
  (fp_text value Witty (at 0 12.7) (layer F.Fab)
    (effects (font (size 1.2 1.2) (thickness 0.15)))
  )
  (fp_line (start -15.8 15) (end -15.8 -15) (layer F.SilkS) (width 0.15))
  (fp_line (start 15.8 15) (end -15.8 15) (layer F.SilkS) (width 0.15))
  (fp_line (start 15.8 15) (end 15.8 -15) (layer F.SilkS) (width 0.15))
  (fp_line (start -15.8 -15) (end 15.8 -15) (layer F.SilkS) (width 0.15))
  (pad 16 thru_hole oval (at 14 -6 270) (size 1.5 2.5) (drill 0.8) (layers *.Cu *.Mask))
  (pad 1 thru_hole oval (at -14 -6 270) (size 1.5 2.5) (drill 0.8) (layers *.Cu *.Mask))
  (pad 15 thru_hole oval (at 14 -3.46 270) (size 1.5 2.5) (drill 0.8) (layers *.Cu *.Mask))
  (pad 2 thru_hole oval (at -14 -3.46 270) (size 1.5 2.5) (drill 0.8) (layers *.Cu *.Mask))
  (pad 14 thru_hole oval (at 14 -0.92 270) (size 1.5 2.5) (drill 0.8) (layers *.Cu *.Mask))
  (pad 3 thru_hole oval (at -14 -0.92 270) (size 1.5 2.5) (drill 0.8) (layers *.Cu *.Mask))
  (pad 13 thru_hole oval (at 14 1.62 270) (size 1.5 2.5) (drill 0.8) (layers *.Cu *.Mask))
  (pad 4 thru_hole oval (at -14 1.62 270) (size 1.5 2.5) (drill 0.8) (layers *.Cu *.Mask))
  (pad 12 thru_hole oval (at 14 4.16 270) (size 1.5 2.5) (drill 0.8) (layers *.Cu *.Mask))
  (pad 5 thru_hole oval (at -14 4.16 270) (size 1.5 2.5) (drill 0.8) (layers *.Cu *.Mask))
  (pad 11 thru_hole oval (at 14 6.7 270) (size 1.5 2.5) (drill 0.8) (layers *.Cu *.Mask))
  (pad 6 thru_hole oval (at -14 6.7 270) (size 1.5 2.5) (drill 0.8) (layers *.Cu *.Mask))
  (pad 10 thru_hole oval (at 14 9.24 270) (size 1.5 2.5) (drill 0.8) (layers *.Cu *.Mask))
  (pad 7 thru_hole oval (at -14 9.24 270) (size 1.5 2.5) (drill 0.8) (layers *.Cu *.Mask))
  (pad 9 thru_hole oval (at 14 11.78 270) (size 1.5 2.5) (drill 0.8) (layers *.Cu *.Mask))
  (pad 8 thru_hole oval (at -14 11.78 270) (size 1.5 2.5) (drill 0.8) (layers *.Cu *.Mask))
)
