$ 1 0.000005 5.934295036739208 45 5 50
r 160 -192 160 -112 0 200000
g 640 48 640 80 0
v -160 48 -80 48 0 1 50 325 0 0 0.5
g -128 -256 -128 -208 0
d -128 -256 -80 -304 1 0.805904783
d -80 -304 -32 -256 1 0.805904783
d -128 -256 -80 -208 1 0.805904783
d -80 -208 -32 -256 1 0.805904783
c -128 -352 -32 -352 0 0.001 -322.89126900086023
w 160 -112 224 -112 0
f 288 -112 352 -112 0 1.5 0.02
r 224 -112 288 -112 0 100
z 352 -208 352 -352 1 0.805904783 220
w 160 -304 160 -192 0
w 352 -96 352 48 0
r 352 -208 352 -128 0 1200
r 288 -112 288 -48 0 40000
w 288 -48 288 48 0
w 352 48 288 48 0
w 160 -304 160 -352 0
w 448 -352 448 -192 0
r 448 -192 448 -112 0 500000
w 448 48 384 48 0
w 448 -112 512 -112 0
207 224 -112 224 -144 0 TP3
w 352 48 384 48 0
207 512 -112 512 -144 0 TP4
r 512 -112 576 -112 0 100
r 576 -112 576 -48 0 50000
w 576 -48 576 48 0
w 576 48 448 48 0
f 576 -112 640 -112 0 1.5 0.02
z 640 -208 640 -352 1 0.805904783 220
r 640 -208 640 -128 0 1200
w 640 -352 448 -352 0
w 640 -96 640 48 0
w 640 48 576 48 0
w -160 48 -160 128 0
215 -80 160 -48 160 0 2 abs(i)
r -80 48 -80 112 0 17000
162 -128 192 -128 128 1 1.2 1 0 1 0.02
162 -160 128 -160 192 1 1.2 1 0 1 0.02
w -128 128 -160 128 0
w -160 192 -128 192 0
g 16 192 16 224 0
t 16 160 48 160 0 1 0.6178418040229744 0.7160154594472236 10
r 48 144 48 64 0 100
w -32 -352 160 -352 0
w 160 -352 352 -352 0
w 352 -352 448 -352 0
w -80 -48 -80 -208 0
w -160 -144 -160 -304 0
w -160 -304 -80 -304 0
w -32 -256 -32 -352 0
w -128 -256 -128 -352 0
w -80 -48 -80 48 0
w -160 -144 -160 48 0
r -48 -144 16 -144 0 100
c 16 -144 80 -144 0 4.7000000000000004e-8 -0.7700037948531939
r 16 -192 80 -192 0 1000000
w 80 -192 80 -144 0
w 16 -192 16 -144 0
d 144 -96 96 -48 1 0.805904783
d 96 -48 48 -96 1 0.805904783
d 144 -96 96 -144 1 0.805904783
d 96 -144 48 -96 1 0.805904783
c 48 -16 144 -16 0 0.000047 230.58113022911365
r 48 -16 48 64 0 100
z 144 64 48 64 1 0.805904783 10
g 144 64 144 96 0
w -80 112 -80 160 0
w -128 192 -80 192 0
w -80 -48 96 -48 0
w 80 -144 96 -144 0
w -48 -144 -160 -144 0
w 144 -96 144 -16 0
w 48 -96 48 -16 0
w 144 -16 144 64 0
w 48 176 48 192 0
w 48 192 16 192 0
o 2 64 0 4098 325.0000000000001 0.0001 0 1 out
o 79 64 0 4097 0.0000762939453125 0.2 1 2 79 3
